{
    "system" :  {
        "user" : "pi"
    },
    "GPIO" : {
        "button" : {
            "reset" : 22,
            "start" : 23
        },
        "led" : {
          "start" : 17,
          "reset" : 25,
          "pose" : 18,
          "printing" : 24
        }
    },
    "printer" : {
        "name" : "Canon_SELPHY_CP1200",
        "maxRetries" : 5,
        "enabled" : true
    },
    "image" : {
        "prefix" : "JuliaAlexHochzeit_",
        "suffix" : ".jpg"
    },
    "paths" : {
        "images" : {
            "base" : "/home/photowub/images/",
            "archiv" : "/home/photowub/images/archiv/",
            "session" : "/home/photowub/images/session/",
            "originals" : "/home/photowub/images/originals/"
        },
        "scripts" : {
            "base" : "/home/photowub/scripts/",
            "tasks" : "/home/photowub/scripts/Tasks/"
        }
    }
}
